Alice Resultados
…
Pelo pacote purposeful

explicativas <- dr[,c(-18,-19)]
explic <- names(explicativas)
# Pelo Pacote
st1 <- purposeful_step_1(data = dr,
                         outcome = "X49.bin",
                         predictors = explic,
                         # ref_level = "dead",
                         format = TRUE,
                         exponentiate = FALSE)
st1

# A tibble: 93 x 5
   covariate term  log_odds_ci          p_value below_cutoff
   <chr>     <chr> <chr>                <chr>   <glue>      
 1 "X1"      ""    ""                   "0.738" ""          
 2 ""        "1"   "Reference level"    ""      ""          
 3 ""        "2"   "-0.1 (-0.6 to 0.4)" "0.738" ""          
 4 ""        ""    ""                   ""      ""          
 5 "X3"      ""    ""                   "0.504" ""          
 6 ""        "1"   "Reference level"    ""      ""          
 7 ""        "2"   "0.0 (-1.2 to 1.2)"  "0.953" ""          
 8 ""        "3"   "0.6 (-0.6 to 1.7)"  "0.316" ""          
 9 ""        "4"   "0.4 (-0.7 to 1.6)"  "0.472" ""          
10 ""        "5"   "0.7 (-0.7 to 2.2)"  "0.344" ""          
# ... with 83 more rows
…
$covariates_full_model
 [1] "X2"  "X4"  "X6"  "X7"  "X8"  "X9"  "X10" "X11" "X12" "X31" "X38"

$covariates_red_model
[1] "X2" "X4"

$results_full_model
# A tibble: 29 x 5
   term        estimate std_error statistic     p_value
   <chr>          <dbl>     <dbl>     <dbl>       <dbl>
 1 (Intercept)   16.6    1341.       0.0124 0.990      
 2 X2negra       -1.14      0.467   -2.44   0.0147     
 3 X2parda       -0.649     0.361   -1.80   0.0723     
 4 X42            2.00      0.405    4.94   0.000000770
 5 X43            4.00      1.05     3.83   0.000130   
 6 X62           -0.859     0.812   -1.06   0.290      
 7 X63           -1.03      0.777   -1.32   0.186      
 8 X64           -0.156     0.779   -0.200  0.842      
 9 X65           -1.06      0.898   -1.17   0.240      
10 X72           -0.496     1.04    -0.476  0.634      
# ... with 19 more rows
…
Pelo pacote purposeful

explicativas <- dr[,c(-18)]
explic <- names(explicativas)
# Pelo Pacote
st1 <- purposeful_step_1(data = dr,
                         outcome = "X48.2bin",
                         predictors = explic,
                         # ref_level = "dead",
                         format = TRUE,
                         exponentiate = FALSE)
st1

# A tibble: 93 x 5
   covariate term  log_odds_ci          p_value below_cutoff    
   <chr>     <chr> <chr>                <chr>   <glue>          
 1 "X1"      ""    ""                   "0.519" ""              
 2 ""        "1"   "Reference level"    ""      ""              
 3 ""        "2"   "0.2 (-0.4 to 0.7)"  "0.519" ""              
 4 ""        ""    ""                   ""      ""              
 5 "X3"      ""    ""                   "0.011" "Less than 0.25"
 6 ""        "1"   "Reference level"    ""      ""              
 7 ""        "2"   "0.6 (-1.5 to 2.3)"  "0.517" ""              
 8 ""        "3"   "-0.7 (-2.7 to 0.8)" "0.400" ""              
 9 ""        "4"   "-0.8 (-2.8 to 0.7)" "0.338" ""              
10 ""        "5"   "-1.3 (-3.5 to 0.4)" "0.159" ""              
# ... with 83 more rows
…
$covariates_full_model
[1] "X3"  "X4"  "X7"  "X8"  "X10" "X12" "X32" "X38"

$covariates_red_model
[1] "X3"

$results_full_model
# A tibble: 23 x 5
   term        estimate std_error statistic p_value
   <chr>          <dbl>     <dbl>     <dbl>   <dbl>
 1 (Intercept)    0.191     1.32      0.145   0.885
 2 X32            0.447     0.956     0.468   0.640
 3 X33           -0.944     0.889    -1.06    0.288
 4 X34           -0.939     0.884    -1.06    0.288
 5 X35           -1.33      1.01     -1.31    0.189
 6 X36           -1.15      1.06     -1.08    0.279
 7 X42            0.403     0.374     1.08    0.281
 8 X43            0.607     0.677     0.897   0.370
 9 X72           -0.560     1.23     -0.455   0.649
10 X73            0.320     0.869     0.369   0.712
# ... with 13 more rows
…
